<?xml version="1.0" encoding="UTF-8" standalone="no"?>
<!-- Generator: Adobe Illustrator 18.0.0, SVG Export Plug-In . SVG Version: 6.00 Build 0)  -->

<svg
   xmlns:dc="http://purl.org/dc/elements/1.1/"
   xmlns:cc="http://creativecommons.org/ns#"
   xmlns:rdf="http://www.w3.org/1999/02/22-rdf-syntax-ns#"
   xmlns:svg="http://www.w3.org/2000/svg"
   xmlns="http://www.w3.org/2000/svg"
   xmlns:sodipodi="http://sodipodi.sourceforge.net/DTD/sodipodi-0.dtd"
   xmlns:inkscape="http://www.inkscape.org/namespaces/inkscape"
   version="1.1"
   id="Capa_1"
   x="0px"
   y="0px"
   viewBox="0 0 399.99999 299.99999"
   xml:space="preserve"
   inkscape:version="0.91 r13725"
   sodipodi:docname="plataforma.svg"
   width="400"
   height="300"><metadata
     id="metadata53"><rdf:RDF><cc:Work
         rdf:about=""><dc:format>image/svg+xml</dc:format><dc:type
           rdf:resource="http://purl.org/dc/dcmitype/StillImage" /><dc:title></dc:title></cc:Work></rdf:RDF></metadata><defs
     id="defs51" /><sodipodi:namedview
     pagecolor="#ffffff"
     bordercolor="#666666"
     borderopacity="1"
     objecttolerance="10"
     gridtolerance="10"
     guidetolerance="10"
     inkscape:pageopacity="0"
     inkscape:pageshadow="2"
     inkscape:window-width="1600"
     inkscape:window-height="876"
     id="namedview49"
     showgrid="false"
     inkscape:zoom="0.56996294"
     inkscape:cx="-94.742997"
     inkscape:cy="207.03101"
     inkscape:window-x="0"
     inkscape:window-y="24"
     inkscape:window-maximized="1"
     inkscape:current-layer="Capa_1" /><g
     id="g3"
     transform="matrix(0.87711864,0,0,0.8645283,19.299501,-28.116601)"
     style="fill:#365480;fill-opacity:1"><path
       d="m 235.018,317.239 0,-16.617 18.548,0 c -7.428,-3.969 -14.309,-9.058 -20.433,-15.182 -4.261,-4.26 -8.007,-8.895 -11.238,-13.818 l -192.895,0 0,-178.052 291,0 0,48.453 c 10.532,3.289 20.359,8.589 29,15.723 l 0,-88.176 c 0,-2.761 -2.239,-5 -5,-5 l -339,0 c -2.761,0 -5,2.239 -5,5 l 0,226.053 c 0,2.761 2.239,5 5,5 l 108.982,0 0,16.617 -21.531,23.907 c -1.322,1.468 -1.656,3.575 -0.853,5.379 0.803,1.804 2.593,2.967 4.568,2.967 l 156.667,0 c 0.007,0 0.013,0 0.02,0 2.761,0 5,-2.239 5,-5 0,-1.426 -0.597,-2.712 -1.554,-3.622 l -21.281,-23.632 z"
       id="path5"
       inkscape:connector-curvature="0"
       style="fill:#365480;fill-opacity:1" /><path
       d="m 410.501,323.551 -58.92,-58.92 c 8.235,-11.704 12.69,-25.617 12.69,-40.223 0,-18.725 -7.292,-36.33 -20.534,-49.571 -13.241,-13.241 -30.846,-20.534 -49.571,-20.534 -18.726,0 -36.33,7.292 -49.571,20.534 -13.241,13.241 -20.533,30.846 -20.533,49.571 0,18.725 7.292,36.33 20.533,49.571 13.241,13.242 30.846,20.534 49.571,20.534 14.605,0 28.519,-4.455 40.222,-12.689 l 58.92,58.92 c 2.373,2.374 5.485,3.56 8.596,3.56 3.111,0 6.223,-1.187 8.597,-3.56 4.748,-4.748 4.748,-12.446 0,-17.193 z m -81.09,-63.899 c -9.414,9.415 -21.931,14.599 -35.244,14.599 -13.313,0 -25.83,-5.185 -35.245,-14.599 -9.414,-9.414 -14.599,-21.931 -14.599,-35.244 0,-13.314 5.185,-25.83 14.599,-35.244 9.415,-9.414 21.931,-14.599 35.245,-14.599 13.313,0 25.83,5.185 35.244,14.599 9.414,9.415 14.599,21.931 14.599,35.244 0,13.313 -5.185,25.83 -14.599,35.244 z"
       id="path7"
       inkscape:connector-curvature="0"
       style="fill:#365480;fill-opacity:1" /><path
       d="m 181.5,198.364 0,26.333 c 0,4.418 3.582,8 8,8 4.418,0 8,-3.582 8,-8 l 0,-26.333 c 0,-4.419 -3.582,-8 -8,-8 -4.418,0 -8,3.582 -8,8 z"
       id="path9"
       inkscape:connector-curvature="0"
       style="fill:#365480;fill-opacity:1" /><path
       d="m 151.5,165.364 0,59.333 c 0,4.418 3.582,8 8,8 4.418,0 8,-3.582 8,-8 l 0,-59.333 c 0,-4.419 -3.582,-8 -8,-8 -4.418,0 -8,3.582 -8,8 z"
       id="path11"
       inkscape:connector-curvature="0"
       style="fill:#365480;fill-opacity:1" /><path
       d="m 121.5,198.364 0,26.333 c 0,4.418 3.582,8 8,8 4.419,0 8,-3.582 8,-8 l 0,-26.333 c 0,-4.419 -3.581,-8 -8,-8 -4.418,0 -8,3.582 -8,8 z"
       id="path13"
       inkscape:connector-curvature="0"
       style="fill:#365480;fill-opacity:1" /><path
       d="m 91.5,165.364 0,59.333 c 0,4.418 3.582,8 8,8 4.418,0 8,-3.582 8,-8 l 0,-59.333 c 0,-4.419 -3.581,-8 -8,-8 -4.418,0 -8,3.582 -8,8 z"
       id="path15"
       inkscape:connector-curvature="0"
       style="fill:#365480;fill-opacity:1" /><path
       d="m 61.5,144.364 0,80.333 c 0,4.418 3.582,8 8,8 4.418,0 8,-3.582 8,-8 l 0,-80.333 c 0,-4.419 -3.582,-8 -8,-8 -4.418,0 -8,3.582 -8,8 z"
       id="path17"
       inkscape:connector-curvature="0"
       style="fill:#365480;fill-opacity:1" /></g><g
     id="g19"
     transform="translate(0,-114.06201)" /><g
     id="g21"
     transform="translate(0,-114.06201)" /><g
     id="g23"
     transform="translate(0,-114.06201)" /><g
     id="g25"
     transform="translate(0,-114.06201)" /><g
     id="g27"
     transform="translate(0,-114.06201)" /><g
     id="g29"
     transform="translate(0,-114.06201)" /><g
     id="g31"
     transform="translate(0,-114.06201)" /><g
     id="g33"
     transform="translate(0,-114.06201)" /><g
     id="g35"
     transform="translate(0,-114.06201)" /><g
     id="g37"
     transform="translate(0,-114.06201)" /><g
     id="g39"
     transform="translate(0,-114.06201)" /><g
     id="g41"
     transform="translate(0,-114.06201)" /><g
     id="g43"
     transform="translate(0,-114.06201)" /><g
     id="g45"
     transform="translate(0,-114.06201)" /><g
     id="g47"
     transform="translate(0,-114.06201)" /></svg>