<?xml version="1.0" encoding="UTF-8" standalone="no"?>
<!-- Generator: Adobe Illustrator 16.0.0, SVG Export Plug-In . SVG Version: 6.00 Build 0)  -->

<svg
   xmlns:dc="http://purl.org/dc/elements/1.1/"
   xmlns:cc="http://creativecommons.org/ns#"
   xmlns:rdf="http://www.w3.org/1999/02/22-rdf-syntax-ns#"
   xmlns:svg="http://www.w3.org/2000/svg"
   xmlns="http://www.w3.org/2000/svg"
   xmlns:sodipodi="http://sodipodi.sourceforge.net/DTD/sodipodi-0.dtd"
   xmlns:inkscape="http://www.inkscape.org/namespaces/inkscape"
   version="1.1"
   id="Capa_1"
   x="0px"
   y="0px"
   width="400"
   height="300"
   viewBox="0 0 399.99999 299.99999"
   xml:space="preserve"
   inkscape:version="0.91 r13725"
   sodipodi:docname="servicios.svg"><metadata
     id="metadata59"><rdf:RDF><cc:Work
         rdf:about=""><dc:format>image/svg+xml</dc:format><dc:type
           rdf:resource="http://purl.org/dc/dcmitype/StillImage" /><dc:title></dc:title></cc:Work></rdf:RDF></metadata><defs
     id="defs57" /><sodipodi:namedview
     pagecolor="#ffffff"
     bordercolor="#666666"
     borderopacity="1"
     objecttolerance="10"
     gridtolerance="10"
     guidetolerance="10"
     inkscape:pageopacity="0"
     inkscape:pageshadow="2"
     inkscape:window-width="1600"
     inkscape:window-height="876"
     id="namedview55"
     showgrid="false"
     inkscape:zoom="1.4495809"
     inkscape:cx="81.030595"
     inkscape:cy="82.751193"
     inkscape:window-x="0"
     inkscape:window-y="24"
     inkscape:window-maximized="1"
     inkscape:current-layer="Capa_1" /><g
     id="g3"
     transform="matrix(3.2892514,0,0,2.7954112,11.728881,-11.61301)"
     style="fill:#365480;fill-opacity:1"><g
       id="g5"
       style="fill:#365480;fill-opacity:1">
       <polygon points="77.666,83.748 75.347,83.748 76.505,86.236 " id="polygon7" style="fill:#365480;fill-opacity:1" />
       <polygon points="41.08,83.748 38.758,83.748 39.917,86.236 "  id="polygon9" style="fill:#365480;fill-opacity:1" />
       <polygon points="22.131,89.689 19.812,89.689 20.971,92.178 " id="polygon11" style="fill:#365480;fill-opacity:1" />
       <polygon points="58.722,89.689 56.401,89.689 57.561,92.178 " id="polygon13" style="fill:#365480;fill-opacity:1" />
       <polygon points="95.309,89.689 92.988,89.689 94.147,92.178 " id="polygon15" style="fill:#365480;fill-opacity:1" />
       <path
         d="m 115.032,99.643 -1.294,-5.574 c -0.145,-0.623 -0.456,-1.195 -0.903,-1.652 -0.65,-0.666 -1.421,-1.233 -2.313,-1.698 -2.624,-1.345 -5.273,-2.447 -7.653,-3.379 l -0.052,-0.164 c -0.083,-0.275 -0.25,-0.836 -0.639,-1.433 -0.002,-0.119 -0.003,-0.231 0.001,-0.319 0.249,-0.339 0.387,-0.646 0.452,-0.806 0.293,-0.653 0.475,-1.285 0.621,-1.795 0.101,-0.35 0.239,-0.83 0.334,-0.967 l -0.002,-0.002 c 0.337,-0.498 0.562,-1.119 0.623,-1.701 l 0.03,-0.301 c 0.073,-0.697 0.146,-1.389 0.212,-2.17 0.047,-0.758 -0.146,-1.502 -0.516,-2.141 l -0.002,-2.365 c 0,-2.469 -1.132,-4.004 -2.081,-4.859 -0.232,-0.209 -0.468,-0.418 -0.704,-0.623 0.019,-0.746 -0.193,-1.506 -0.646,-2.152 -0.646,-1 -1.838,-1.604 -3.026,-1.604 -0.391,-0.017 -0.77,-0.01 -1.163,0.052 l -0.391,0.062 c -0.779,0.121 -1.586,0.248 -2.435,0.445 -0.815,0.192 -1.691,0.436 -2.578,0.772 l 0,-12.106 0,-3.199 0,-26.023 -16.211,19.009 0,15.904 c -1.558,0.441 -3.233,1.111 -4.761,2.371 -0.678,0.559 -2.739,2.258 -2.964,5.262 -0.043,0.594 -0.049,1.193 -0.052,1.791 l -0.003,1.023 c -0.136,0.211 -0.248,0.443 -0.344,0.688 -0.273,-0.506 -0.591,-0.926 -0.908,-1.271 l 0,-1.396 0,-20.439 -6.989,-2.043 -9.223,13.703 0,6.57 0,0.247 c -0.384,-1.403 -1.151,-2.375 -1.831,-2.985 -0.229,-0.205 -0.458,-0.408 -0.69,-0.611 0.015,-0.535 -0.096,-1.076 -0.327,-1.58 0.02,-0.027 0.045,-0.049 0.063,-0.076 l 11.45,-17.01 10.592,3.096 c 0.656,0.189 1.364,-0.018 1.81,-0.539 L 97.267,14.296 c 0.622,-0.729 0.536,-1.826 -0.192,-2.449 -0.729,-0.621 -1.827,-0.535 -2.45,0.195 L 68.605,42.544 57.873,39.408 c -0.727,-0.215 -1.507,0.068 -1.929,0.697 L 44.942,56.452 35.085,46.946 c -0.634,-0.611 -1.627,-0.65 -2.309,-0.092 L 19.458,57.796 c -0.74,0.61 -0.848,1.704 -0.238,2.444 0.343,0.418 0.841,0.635 1.344,0.635 0.388,0 0.777,-0.129 1.102,-0.396 l 12.121,-9.961 7.874,7.595 -0.057,0.008 c -0.628,0.1 -1.28,0.209 -1.954,0.352 l -6.129,-5.91 -7.922,6.51 0,2.437 0,2.67 c -0.415,-0.158 -0.858,-0.242 -1.302,-0.242 -0.391,-0.019 -0.769,-0.01 -1.164,0.052 l -0.388,0.062 c -0.78,0.121 -1.587,0.248 -2.436,0.445 -1.852,0.438 -4.002,1.098 -5.909,2.672 -0.678,0.559 -2.738,2.258 -2.966,5.271 -0.041,0.588 -0.047,1.181 -0.05,1.771 L 11.38,75.25 c -0.498,0.783 -0.748,1.795 -0.552,3.012 -0.013,-0.07 -0.022,-0.141 -0.024,-0.15 0.007,0.219 0.019,0.586 0.119,1.041 0.144,0.641 0.321,1.398 0.542,2.15 0.091,0.314 0.211,0.623 0.338,0.93 0.023,0.057 0.049,0.113 0.07,0.172 0.187,1.107 0.561,2.121 1.11,3.021 -0.359,0.457 -0.672,1.043 -0.896,1.797 -0.018,0.059 -0.035,0.113 -0.052,0.168 -0.13,0.053 -0.26,0.105 -0.39,0.16 -0.371,0.152 -0.743,0.305 -1.112,0.459 L 9.848,88.297 C 9.084,88.613 8.322,88.93 7.56,89.291 6.748,89.68 5.955,90.106 5.161,90.535 l -0.529,0.284 c -0.913,0.486 -1.625,0.982 -2.237,1.56 -0.502,0.471 -0.853,1.08 -1.01,1.75 l -1.293,5.508 c -0.244,1.041 0,2.135 0.664,2.973 0.664,0.838 1.674,1.326 2.743,1.326 2.442,0 4.313,0.934 6.684,2.115 2.501,1.248 5.336,2.662 9.155,2.99 0.101,0.008 0.201,0.012 0.301,0.012 0.006,0 0.013,0 0.019,0 0.519,0 1.011,-0.111 1.453,-0.314 0.57,0.217 1.201,0.287 1.827,0.185 2.569,-0.431 5.575,-1.609 8.482,-2.75 2.54,-0.996 5.7,-2.236 7.023,-2.236 0.28,0 0.556,-0.037 0.822,-0.103 0.268,0.064 0.543,0.103 0.823,0.103 2.442,0 4.313,0.935 6.684,2.115 2.501,1.248 5.336,2.662 9.155,2.989 0.101,0.009 0.201,0.013 0.301,0.013 0.006,0 0.013,0 0.019,0 0.519,0 1.011,-0.111 1.453,-0.313 0.571,0.217 1.2,0.286 1.827,0.184 2.569,-0.43 5.575,-1.609 8.482,-2.75 2.54,-0.996 5.7,-2.236 7.023,-2.236 0.279,0 0.555,-0.037 0.82,-0.102 0.268,0.063 0.541,0.102 0.821,0.102 2.442,0 4.312,0.934 6.684,2.115 2.501,1.248 5.337,2.662 9.157,2.99 0.101,0.008 0.2,0.012 0.3,0.012 0.006,0 0.013,0 0.02,0 0.519,0 1.011,-0.111 1.453,-0.314 0.568,0.217 1.198,0.287 1.825,0.185 2.569,-0.431 5.575,-1.609 8.482,-2.75 2.54,-0.996 5.7,-2.236 7.023,-2.236 1.066,0 2.075,-0.485 2.739,-1.321 0.664,-0.836 0.916,-1.937 0.676,-2.978 z m -92.669,6.025 2.352,-3.25 -3.744,-10.24 -3.745,10.24 2.414,3.334 c -6.553,-0.563 -9.841,-5.117 -16.139,-5.117 l 1.293,-5.508 c 0.426,-0.4 0.938,-0.728 1.484,-1.019 0.929,-0.498 1.851,-1.01 2.799,-1.465 0.921,-0.437 1.873,-0.813 2.815,-1.209 0.886,-0.373 1.782,-0.728 2.66,-1.106 0.152,-0.07 0.307,-0.228 0.367,-0.381 0.197,-0.492 0.363,-1 0.518,-1.509 0.118,-0.387 0.194,-0.769 0.689,-0.866 0.124,-0.029 0.274,-0.246 0.295,-0.39 0.102,-0.74 0.177,-1.483 0.229,-2.228 0.012,-0.16 -0.069,-0.362 -0.176,-0.483 -0.654,-0.731 -1.016,-1.572 -1.163,-2.539 -0.077,-0.483 -0.347,-0.935 -0.485,-1.41 -0.188,-0.639 -0.342,-1.291 -0.487,-1.938 -0.052,-0.234 -0.021,-0.486 -0.063,-0.728 -0.057,-0.353 -0.045,-0.618 0.374,-0.756 0.12,-0.037 0.213,-0.315 0.219,-0.483 0.022,-1.037 0.006,-0.783 0.013,-1.824 0.006,-0.637 0,-1.277 0.044,-1.914 0.092,-1.215 0.807,-2.074 1.7,-2.812 1.308,-1.079 2.874,-1.586 4.487,-1.967 0.844,-0.196 1.707,-0.319 2.568,-0.457 0.228,-0.035 0.465,-0.006 0.699,-0.006 0.039,0.062 0.078,0.119 0.119,0.178 -0.182,0.132 -0.379,0.242 -0.536,0.396 -0.353,0.351 -0.317,0.595 0.056,0.91 0.778,0.656 1.556,1.314 2.313,1.996 0.664,0.599 0.922,1.377 0.922,2.258 0.003,1.513 0.003,1.732 0.003,3.244 -0.003,0.31 -0.022,0.617 0.36,0.752 0.083,0.029 0.166,0.199 0.16,0.295 -0.067,0.775 -0.149,1.545 -0.23,2.32 -0.004,0.029 -0.008,0.064 -0.025,0.086 -0.697,1.017 -0.782,2.264 -1.282,3.353 -0.019,0.041 -0.031,0.088 -0.059,0.123 -0.925,1.086 -0.636,2.393 -0.657,3.637 0,0.129 0.092,0.324 0.194,0.369 0.375,0.168 0.467,0.489 0.569,0.834 0.167,0.535 0.327,1.078 0.559,1.59 0.088,0.185 0.341,0.349 0.552,0.427 2.835,1.09 5.64,2.239 8.348,3.629 0.542,0.28 1.009,0.621 1.405,1.026 l 1.293,5.574 c -3.694,0.001 -11.309,4.237 -16.081,5.034 z m 17.554,-19.432 -2.324,6.355 c -0.337,-0.25 -0.697,-0.48 -1.084,-0.68 -2.838,-1.455 -5.692,-2.615 -8.164,-3.57 -0.079,-0.225 -0.147,-0.453 -0.218,-0.68 l -0.055,-0.174 c -0.05,-0.166 -0.128,-0.41 -0.256,-0.681 0.07,-0.033 0.137,-0.069 0.208,-0.104 0.92,-0.438 1.873,-0.813 2.814,-1.211 0.886,-0.373 1.782,-0.727 2.661,-1.106 0.151,-0.068 0.306,-0.228 0.367,-0.382 0.196,-0.491 0.362,-1 0.517,-1.508 0.119,-0.387 0.194,-0.766 0.689,-0.867 0.124,-0.028 0.274,-0.245 0.295,-0.389 0.102,-0.74 0.178,-1.483 0.229,-2.227 0.012,-0.16 -0.069,-0.363 -0.176,-0.484 -0.653,-0.731 -1.016,-1.572 -1.163,-2.539 -0.077,-0.483 -0.347,-0.934 -0.485,-1.41 -0.188,-0.639 -0.342,-1.289 -0.486,-1.938 -0.053,-0.233 -0.021,-0.485 -0.063,-0.728 -0.058,-0.35 -0.044,-0.619 0.375,-0.756 0.118,-0.037 0.211,-0.315 0.217,-0.481 0.022,-1.039 0.008,-0.785 0.013,-1.826 0.006,-0.637 0,-1.276 0.046,-1.912 0.09,-1.217 0.805,-2.075 1.698,-2.813 1.308,-1.08 2.874,-1.586 4.487,-1.967 0.844,-0.197 1.708,-0.317 2.568,-0.457 0.228,-0.035 0.465,-0.006 0.7,-0.006 0.038,0.062 0.077,0.119 0.118,0.178 -0.182,0.131 -0.379,0.242 -0.536,0.396 -0.353,0.35 -0.317,0.594 0.056,0.91 0.778,0.658 1.556,1.314 2.313,1.996 0.664,0.598 0.922,1.377 0.922,2.258 0.003,1.512 0.003,1.732 0.003,3.244 -0.003,0.309 -0.022,0.617 0.36,0.752 0.083,0.029 0.167,0.201 0.16,0.297 -0.066,0.773 -0.149,1.543 -0.23,2.318 -0.004,0.029 -0.008,0.063 -0.025,0.086 -0.697,1.016 -0.782,2.264 -1.281,3.352 -0.02,0.041 -0.031,0.088 -0.06,0.123 -0.925,1.086 -0.635,2.393 -0.657,3.637 0,0.129 0.092,0.324 0.194,0.371 0.375,0.166 0.467,0.488 0.569,0.832 0.168,0.535 0.327,1.078 0.559,1.592 0.088,0.185 0.341,0.347 0.552,0.427 1.427,0.547 2.845,1.108 4.247,1.713 -0.418,0.502 -0.602,1.063 -0.692,1.364 -0.084,0.277 -0.171,0.556 -0.269,0.832 -0.337,0.142 -0.676,0.279 -1.015,0.42 l -1.777,0.736 c -0.746,0.312 -1.491,0.619 -2.229,0.969 -0.785,0.377 -1.553,0.789 -2.32,1.203 l -0.313,0.17 -2.059,-5.635 z m 19.037,19.432 2.352,-3.25 -3.744,-10.24 -3.745,10.24 2.414,3.334 c -6.553,-0.563 -9.841,-5.117 -16.139,-5.117 l 1.293,-5.508 c 0.427,-0.4 0.938,-0.728 1.484,-1.019 0.93,-0.498 1.852,-1.01 2.799,-1.465 0.921,-0.437 1.873,-0.813 2.815,-1.209 0.886,-0.373 1.782,-0.728 2.662,-1.106 0.15,-0.07 0.305,-0.228 0.365,-0.381 0.197,-0.492 0.363,-1 0.518,-1.509 0.118,-0.387 0.194,-0.769 0.689,-0.866 0.124,-0.029 0.273,-0.246 0.295,-0.39 0.102,-0.74 0.177,-1.483 0.229,-2.228 0.013,-0.16 -0.069,-0.362 -0.176,-0.483 C 52.412,83.74 52.049,82.899 51.902,81.932 51.825,81.449 51.555,80.997 51.418,80.522 51.23,79.883 51.075,79.231 50.93,78.584 50.878,78.35 50.909,78.098 50.867,77.856 50.81,77.503 50.823,77.238 51.243,77.1 c 0.118,-0.037 0.211,-0.315 0.217,-0.483 0.022,-1.037 0.008,-0.783 0.013,-1.824 0.006,-0.637 0,-1.277 0.046,-1.914 0.09,-1.215 0.805,-2.074 1.698,-2.812 1.308,-1.079 2.873,-1.586 4.487,-1.967 0.843,-0.196 1.708,-0.319 2.568,-0.457 0.229,-0.035 0.465,-0.006 0.7,-0.006 0.038,0.062 0.078,0.119 0.118,0.178 -0.183,0.132 -0.379,0.242 -0.535,0.396 -0.353,0.351 -0.318,0.595 0.055,0.91 0.778,0.656 1.557,1.314 2.313,1.996 0.664,0.599 0.922,1.377 0.922,2.258 0.003,1.513 0.003,1.732 0.003,3.244 -0.003,0.31 -0.021,0.617 0.36,0.752 0.083,0.029 0.168,0.199 0.159,0.295 -0.066,0.775 -0.148,1.545 -0.229,2.32 -0.004,0.029 -0.008,0.064 -0.025,0.086 -0.696,1.017 -0.781,2.264 -1.28,3.353 -0.021,0.041 -0.032,0.088 -0.061,0.123 -0.925,1.086 -0.635,2.393 -0.655,3.637 0,0.129 0.091,0.324 0.192,0.369 0.376,0.168 0.467,0.489 0.569,0.834 0.167,0.535 0.328,1.078 0.559,1.59 0.088,0.185 0.341,0.349 0.552,0.427 2.836,1.09 5.641,2.239 8.351,3.629 0.54,0.28 1.007,0.621 1.403,1.026 l 1.293,5.574 c -3.695,0.001 -11.311,4.237 -16.082,5.034 z M 76.505,86.236 74.181,92.59 c -0.334,-0.25 -0.693,-0.479 -1.08,-0.679 -2.84,-1.455 -5.692,-2.614 -8.165,-3.569 -0.08,-0.229 -0.15,-0.466 -0.224,-0.697 l -0.051,-0.16 c -0.05,-0.163 -0.126,-0.407 -0.254,-0.676 0.068,-0.033 0.136,-0.069 0.204,-0.104 0.921,-0.438 1.873,-0.813 2.814,-1.211 0.887,-0.373 1.783,-0.727 2.661,-1.106 0.15,-0.068 0.306,-0.228 0.367,-0.381 0.195,-0.492 0.362,-1 0.518,-1.509 0.118,-0.387 0.194,-0.766 0.688,-0.866 0.124,-0.029 0.273,-0.246 0.296,-0.39 0.101,-0.74 0.177,-1.483 0.229,-2.227 0.012,-0.16 -0.068,-0.363 -0.176,-0.484 -0.653,-0.731 -1.015,-1.572 -1.163,-2.539 -0.076,-0.483 -0.347,-0.934 -0.485,-1.41 -0.188,-0.639 -0.342,-1.289 -0.485,-1.938 -0.052,-0.233 -0.021,-0.485 -0.063,-0.728 -0.058,-0.35 -0.044,-0.618 0.375,-0.756 0.118,-0.037 0.212,-0.315 0.217,-0.481 0.022,-1.039 0.009,-0.785 0.014,-1.826 0.006,-0.637 0,-1.276 0.046,-1.912 0.091,-1.217 0.805,-2.075 1.698,-2.813 1.309,-1.079 2.874,-1.586 4.486,-1.967 0.845,-0.197 1.708,-0.317 2.569,-0.457 0.228,-0.035 0.464,-0.006 0.699,-0.006 0.039,0.062 0.077,0.119 0.118,0.178 -0.183,0.132 -0.38,0.242 -0.536,0.396 -0.353,0.35 -0.317,0.594 0.057,0.91 0.777,0.658 1.555,1.314 2.313,1.996 0.664,0.598 0.923,1.377 0.923,2.258 0.002,1.512 0.002,1.732 0.002,3.244 -0.002,0.309 -0.022,0.617 0.359,0.752 0.083,0.029 0.167,0.201 0.16,0.297 -0.065,0.773 -0.148,1.543 -0.229,2.318 -0.004,0.029 -0.008,0.063 -0.025,0.086 -0.696,1.016 -0.782,2.264 -1.28,3.352 -0.021,0.041 -0.031,0.088 -0.061,0.123 -0.925,1.086 -0.634,2.393 -0.657,3.637 0,0.129 0.092,0.324 0.194,0.371 0.375,0.166 0.467,0.488 0.568,0.832 0.169,0.535 0.327,1.078 0.56,1.592 0.088,0.185 0.341,0.347 0.553,0.427 1.426,0.547 2.844,1.108 4.247,1.713 -0.42,0.502 -0.604,1.063 -0.691,1.364 -0.085,0.277 -0.173,0.556 -0.271,0.83 -0.34,0.146 -0.684,0.285 -1.025,0.427 l -1.767,0.731 c -0.746,0.312 -1.491,0.619 -2.227,0.969 -0.794,0.382 -1.57,0.798 -2.348,1.218 l -0.289,0.155 -2.059,-5.638 z m 19.036,19.432 2.352,-3.25 -3.744,-10.24 -3.745,10.24 2.415,3.334 c -6.554,-0.563 -9.842,-5.117 -16.14,-5.117 l 1.293,-5.508 c 0.427,-0.4 0.938,-0.728 1.485,-1.019 0.928,-0.498 1.85,-1.01 2.799,-1.465 0.92,-0.437 1.873,-0.813 2.813,-1.209 0.887,-0.373 1.783,-0.728 2.66,-1.106 0.152,-0.07 0.308,-0.228 0.367,-0.381 0.197,-0.492 0.363,-1 0.519,-1.509 0.118,-0.387 0.193,-0.769 0.688,-0.866 0.124,-0.029 0.274,-0.246 0.295,-0.39 0.103,-0.74 0.178,-1.483 0.229,-2.228 0.012,-0.16 -0.069,-0.362 -0.177,-0.483 -0.652,-0.731 -1.015,-1.572 -1.163,-2.539 -0.076,-0.483 -0.347,-0.935 -0.484,-1.41 -0.188,-0.639 -0.342,-1.291 -0.487,-1.938 -0.052,-0.234 -0.021,-0.486 -0.062,-0.728 -0.058,-0.353 -0.043,-0.618 0.376,-0.756 0.117,-0.037 0.211,-0.315 0.217,-0.483 0.021,-1.037 0.008,-0.783 0.013,-1.824 0.006,-0.637 0,-1.277 0.046,-1.914 0.09,-1.215 0.806,-2.074 1.698,-2.812 1.308,-1.079 2.874,-1.586 4.487,-1.967 0.844,-0.196 1.708,-0.319 2.568,-0.457 0.228,-0.035 0.465,-0.006 0.699,-0.006 0.039,0.062 0.077,0.119 0.118,0.178 -0.182,0.132 -0.379,0.242 -0.536,0.396 -0.353,0.351 -0.316,0.595 0.057,0.91 0.777,0.656 1.556,1.314 2.313,1.996 0.664,0.599 0.922,1.377 0.922,2.258 0.003,1.513 0.003,1.732 0.003,3.244 -0.003,0.31 -0.021,0.617 0.36,0.752 0.083,0.029 0.166,0.199 0.16,0.295 -0.066,0.775 -0.149,1.545 -0.23,2.32 -0.004,0.029 -0.008,0.064 -0.024,0.086 -0.697,1.017 -0.782,2.264 -1.281,3.353 -0.021,0.041 -0.031,0.088 -0.061,0.123 -0.925,1.086 -0.635,2.393 -0.656,3.637 0,0.129 0.092,0.324 0.193,0.369 0.375,0.168 0.467,0.489 0.569,0.834 0.168,0.535 0.327,1.078 0.559,1.59 0.088,0.185 0.342,0.349 0.554,0.427 2.834,1.09 5.639,2.239 8.349,3.629 0.54,0.28 1.007,0.621 1.403,1.026 l 1.293,5.574 c -3.695,0.001 -11.311,4.237 -16.082,5.034 z"
         id="path17"
         inkscape:connector-curvature="0"
         style="fill:#365480;fill-opacity:1" /><path
         d="m 90.909,7.107 c 0,-0.574 -0.467,-1.041 -1.042,-1.041 l -14.129,0 c -0.574,0 -1.042,0.467 -1.042,1.041 l 0,10.168 0,14.967 16.213,-19.006 0,-6.129 z"
         id="path19"
         inkscape:connector-curvature="0"
         style="fill:#365480;fill-opacity:1" /><path
         d="m 58.186,37.458 7.479,2.188 0,-11.138 0,-5.072 c 0,-0.576 -0.467,-1.043 -1.042,-1.043 l -14.127,0 c -0.575,0 -1.042,0.467 -1.042,1.043 l 0,7.281 0,15.383 4.877,-7.246 c 0.843,-1.256 2.403,-1.818 3.855,-1.396 z"
         id="path21"
         inkscape:connector-curvature="0"
         style="fill:#365480;fill-opacity:1" /><path
         d="m 36.118,45.414 5.694,5.492 0,-6.747 0,-8.564 c 0,-0.576 -0.467,-1.043 -1.042,-1.043 l -14.128,0 c -0.576,0 -1.042,0.467 -1.042,1.043 l 0,10.887 0,3.6 5.9,-4.85 c 1.362,-1.121 3.348,-1.043 4.618,0.182 z"
         id="path23"
         inkscape:connector-curvature="0"
         style="fill:#365480;fill-opacity:1" /></g></g><g
     id="g25"
     transform="translate(0,184.879)" /><g
     id="g27"
     transform="translate(0,184.879)" /><g
     id="g29"
     transform="translate(0,184.879)" /><g
     id="g31"
     transform="translate(0,184.879)" /><g
     id="g33"
     transform="translate(0,184.879)" /><g
     id="g35"
     transform="translate(0,184.879)" /><g
     id="g37"
     transform="translate(0,184.879)" /><g
     id="g39"
     transform="translate(0,184.879)" /><g
     id="g41"
     transform="translate(0,184.879)" /><g
     id="g43"
     transform="translate(0,184.879)" /><g
     id="g45"
     transform="translate(0,184.879)" /><g
     id="g47"
     transform="translate(0,184.879)" /><g
     id="g49"
     transform="translate(0,184.879)" /><g
     id="g51"
     transform="translate(0,184.879)" /><g
     id="g53"
     transform="translate(0,184.879)" /></svg>
