<?xml version="1.0" encoding="UTF-8" standalone="no"?>
<!-- Generator: Adobe Illustrator 18.0.0, SVG Export Plug-In . SVG Version: 6.00 Build 0)  -->

<svg
   xmlns:dc="http://purl.org/dc/elements/1.1/"
   xmlns:cc="http://creativecommons.org/ns#"
   xmlns:rdf="http://www.w3.org/1999/02/22-rdf-syntax-ns#"
   xmlns:svg="http://www.w3.org/2000/svg"
   xmlns="http://www.w3.org/2000/svg"
   xmlns:sodipodi="http://sodipodi.sourceforge.net/DTD/sodipodi-0.dtd"
   xmlns:inkscape="http://www.inkscape.org/namespaces/inkscape"
   version="1.1"
   id="Capa_1"
   x="0px"
   y="0px"
   viewBox="0 0 399.99999 299.99999"
   xml:space="preserve"
   inkscape:version="0.91 r13725"
   sodipodi:docname="telecomunicaciones.svg"
   width="400"
   height="300"><metadata
     id="metadata53"><rdf:RDF><cc:Work
         rdf:about=""><dc:format>image/svg+xml</dc:format><dc:type
           rdf:resource="http://purl.org/dc/dcmitype/StillImage" /><dc:title></dc:title></cc:Work></rdf:RDF></metadata><defs
     id="defs51" /><sodipodi:namedview
     pagecolor="#ffffff"
     bordercolor="#666666"
     borderopacity="1"
     objecttolerance="10"
     gridtolerance="10"
     guidetolerance="10"
     inkscape:pageopacity="0"
     inkscape:pageshadow="2"
     inkscape:window-width="1600"
     inkscape:window-height="876"
     id="namedview49"
     showgrid="false"
     inkscape:zoom="1.1399259"
     inkscape:cx="-58.382571"
     inkscape:cy="168.27501"
     inkscape:window-x="0"
     inkscape:window-y="24"
     inkscape:window-maximized="1"
     inkscape:current-layer="Capa_1" /><g
     id="g19"
     transform="translate(0,-114.06201)" /><g
     id="g21"
     transform="translate(0,-114.06201)" /><g
     id="g23"
     transform="translate(0,-114.06201)" /><g
     id="g25"
     transform="translate(0,-114.06201)" /><g
     id="g27"
     transform="translate(0,-114.06201)" /><g
     id="g29"
     transform="translate(0,-114.06201)" /><g
     id="g31"
     transform="translate(0,-114.06201)" /><g
     id="g33"
     transform="translate(0,-114.06201)" /><g
     id="g35"
     transform="translate(0,-114.06201)" /><g
     id="g37"
     transform="translate(0,-114.06201)" /><g
     id="g39"
     transform="translate(0,-114.06201)" /><g
     id="g41"
     transform="translate(0,-114.06201)" /><g
     id="g43"
     transform="translate(0,-114.06201)" /><g
     id="g45"
     transform="translate(0,-114.06201)" /><g
     id="g47"
     transform="translate(0,-114.06201)" /><g
     transform="matrix(0.6707705,0,0,0.66121118,58.493035,7.4667429)"
     id="g3-3"
     style="fill:#fff;fill-opacity:1"><path
       inkscape:connector-curvature="0"
       d="m 224.651,122.903 c 7.656,-3.961 12.95,-11.863 12.95,-21.081 0,-13.155 -10.656,-23.814 -23.816,-23.814 -13.154,0 -23.814,10.66 -23.814,23.814 0,9.248 5.324,17.171 13.023,21.119 -25.91,215.009 -102.238,294.342 -103.029,295.152 -3.271,3.285 -3.267,8.591 0.011,11.863 3.283,3.291 8.602,3.291 11.885,0 1.369,-1.368 14.827,-15.231 32.129,-45.702 0.897,0.34 1.86,0.542 2.881,0.542 l 135.19,0 c 9.959,17.22 21.119,32.641 33.64,45.173 1.642,1.64 3.798,2.456 5.95,2.456 2.148,0 4.305,-0.816 5.948,-2.456 3.281,-3.285 3.281,-8.604 0,-11.887 C 259.164,349.649 232.288,182.765 224.651,122.903 Z m -10.769,43.571 c 5.244,31.974 13.326,72.433 25.279,113.123 l -51.256,0 c 9.813,-31.771 18.904,-69.21 25.977,-113.123 z m -61.14,201.506 c 9.618,-18.879 19.917,-42.566 29.733,-71.573 l 60.729,0 c 0.365,0 0.721,-0.064 1.065,-0.11 7.983,24.867 17.478,49.38 28.719,71.684 l -120.246,0 z m 104.896,-233.892 0,-5.603 c 17.636,0 31.991,-14.356 31.991,-31.995 0,-17.633 -14.355,-31.99 -31.991,-31.99 l 0,-5.603 c 20.722,0 37.595,16.865 37.595,37.593 -10e-4,20.731 -16.874,37.598 -37.595,37.598 z m 17.106,-99.029 0,-5.603 c 37.61,0 68.207,30.602 68.207,68.216 0,37.609 -30.597,68.209 -68.207,68.209 l 0,-5.604 c 34.523,0 62.604,-28.082 62.604,-62.605 10e-4,-34.523 -28.08,-62.613 -62.604,-62.613 z m 112,63.308 c 0,54.241 -44.124,98.367 -98.37,98.367 l 0,-5.603 c 51.154,0 92.767,-41.618 92.767,-92.764 0,-51.147 -41.612,-92.764 -92.767,-92.764 l 0,-5.603 c 54.246,0 98.37,44.126 98.37,98.367 z M 142.797,97.19 c 0,17.64 14.351,31.995 31.991,31.995 l 0,5.603 c -20.727,0 -37.594,-16.867 -37.594,-37.598 0,-20.728 16.867,-37.593 37.594,-37.593 l 0,5.604 c -17.641,0 -31.991,14.35 -31.991,31.989 z m 14.884,-67.034 0,5.604 c -34.522,0 -62.607,28.091 -62.607,62.613 0,34.523 28.085,62.605 62.607,62.605 l 0,5.603 c -37.61,0 -68.21,-30.6 -68.21,-68.208 0,-37.615 30.599,-68.217 68.21,-68.217 z m -13.633,167.27 c -54.241,0 -98.367,-44.126 -98.367,-98.365 0,-54.24 44.126,-98.367 98.367,-98.367 l 0,5.603 c -51.148,0 -92.765,41.618 -92.765,92.765 0,51.147 41.617,92.762 92.765,92.762 l 0,5.602 z"
       id="path5-6"
       style="fill:#fff;fill-opacity:1" /></g></svg>
